Evaluating the multiple forecasters
…
truth_epidf

## An `epi_df` object, with metadata:
## * geo_type  = state
## * time_type = day
## * as_of     = 2022-06-28 11:29:15
## 
## # A tibble: 4,350 × 5
##    geo_value time_value value population geo_type
##  * <chr>     <date>     <dbl>      <dbl> <chr>   
##  1 al        2020-10-31  9782    4903185 state   
##  2 al        2020-11-07  9905    4903185 state   
##  3 al        2020-11-14 12325    4903185 state   
##  4 al        2020-11-21 14865    4903185 state   
##  5 al        2020-11-28 14285    4903185 state   
##  6 al        2020-12-05 22596    4903185 state   
##  7 al        2020-12-12 25252    4903185 state   
##  8 al        2020-12-19 27063    4903185 state   
##  9 al        2020-12-26 23554    4903185 state   
## 10 al        2021-01-02 26000    4903185 state   
## # … with 4,340 more rows
…
