Surge calculation using epiprocess
…
## Fetched day 2021-01-01 to 2022-03-01: num_entries = 425

## An `epi_df` object, with metadata:
## * geo_type  = state
## * time_type = week
## * as_of     = 2022-04-13 09:37:22
## 
## # A tibble: 62 × 3
##    geo_value time_value  cases
##  * <chr>         <week>  <dbl>
##  1 ma          2020 W53 384181
##  2 ma          2021 W01 427135
##  3 ma          2021 W02 465726
##  4 ma          2021 W03 496093
##  5 ma          2021 W04 521360
##  6 ma          2021 W05 540827
##  7 ma          2021 W06 555895
##  8 ma          2021 W07 567764
##  9 ma          2021 W08 579680
## 10 ma          2021 W09 589931
## # … with 52 more rows
…
)

## Fetched day 2021-01-01 to 2022-03-01: num_entries = 425

## An `epi_df` object, with metadata:
## * geo_type  = state
## * time_type = week
## * as_of     = 2022-04-13 09:37:22
## 
## # A tibble: 62 × 3
##    geo_value time_value cases
##  * <chr>         <week> <dbl>
##  1 ma          2020 W53  9003
##  2 ma          2021 W01 42954
##  3 ma          2021 W02 38591
##  4 ma          2021 W03 30367
##  5 ma          2021 W04 25267
##  6 ma          2021 W05 19467
##  7 ma          2021 W06 15068
##  8 ma          2021 W07 11869
##  9 ma          2021 W08 11916
## 10 ma          2021 W09 10251
## # … with 52 more rows
…
