…
```
## Fetched day 2021-01-01 to 2022-03-01: num_entries = 425
```

```
## An `epi_df` object, with metadata:
## * geo_type  = state
## * time_type = week
## * as_of     = 2022-03-08 13:02:54
## 
## # A tibble: 62 × 3
##    geo_value time_value  cases
##  * <chr>         <week>  <dbl>
##  1 ma          2020 W53 384181
##  2 ma          2021 W01 427135
##  3 ma          2021 W02 465726
##  4 ma          2021 W03 496093
##  5 ma          2021 W04 521360
##  6 ma          2021 W05 540827
##  7 ma          2021 W06 555895
##  8 ma          2021 W07 567764
##  9 ma          2021 W08 579680
## 10 ma          2021 W09 589931
## # … with 52 more rows
```
…
)
```

```
## Fetched day 2021-01-01 to 2022-03-01: num_entries = 425
```

```
## An `epi_df` object, with metadata:
## * geo_type  = state
## * time_type = week
## * as_of     = 2022-03-08 13:02:57
## 
## # A tibble: 62 × 3
##    geo_value time_value  cases
##  * <chr>         <week>  <dbl>
##  1 ma          2020 W53  9690.
##  2 ma          2021 W01 38105.
##  3 ma          2021 W02 42989.
##  4 ma          2021 W03 33430.
##  5 ma          2021 W04 28184.
##  6 ma          2021 W05 21432.
##  7 ma          2021 W06 17714.
##  8 ma          2021 W07 12999.
##  9 ma          2021 W08 11711.
## 10 ma          2021 W09 10940.
## # … with 52 more rows
```
…
