…
``` r
cdc_rt
```

    ## # A tibble: 48,106 × 14
    ##    state date       type  median  mean    sd lower_20 upper_20 lower_50 upper_50
    ##    <chr> <date>     <chr>  <dbl> <dbl> <dbl>    <dbl>    <dbl>    <dbl>    <dbl>
    ##  1 Alab… 2020-08-10 esti…   0.96  0.96  0.02     0.96     0.97     0.95     0.97
    ##  2 Alab… 2020-08-11 esti…   0.96  0.96  0.02     0.96     0.97     0.95     0.97
    ##  3 Alab… 2020-08-12 esti…   0.96  0.96  0.02     0.96     0.97     0.95     0.97
    ##  4 Alab… 2020-08-13 esti…   0.96  0.96  0.02     0.96     0.97     0.95     0.97
    ##  5 Alab… 2020-08-14 esti…   0.96  0.96  0.02     0.96     0.97     0.95     0.97
    ##  6 Alab… 2020-08-15 esti…   0.96  0.97  0.02     0.96     0.97     0.95     0.98
    ##  7 Alab… 2020-08-16 esti…   0.96  0.97  0.02     0.96     0.97     0.95     0.98
    ##  8 Alab… 2020-08-17 esti…   0.97  0.97  0.02     0.96     0.97     0.95     0.98
    ##  9 Alab… 2020-08-18 esti…   0.97  0.97  0.02     0.96     0.97     0.96     0.98
    ## 10 Alab… 2020-08-19 esti…   0.97  0.97  0.02     0.96     0.97     0.96     0.98
    ## # … with 48,096 more rows, and 4 more variables: lower_90 <dbl>,
    ## #   upper_90 <dbl>, version <chr>, strat <lgl>
…
